// Jest Snapshot v1, https://goo.gl/fbAQLP

exports[`Application should match the snapshot for state 1 1`] = `
<div
  className="wrapper"
>
  <h1>
    Acme Subscription to catch the road runner!
  </h1>
  <form
    onSubmit={[Function]}
  >
    <p>
      Please enter your details below
    </p>
    <div
      className="boundedDiv"
    >
      <div
        className="inputDiv"
      >
        <input
          className=""
          onChange={[Function]}
          placeholder="Name"
          type="text"
        />
      </div>
      <div
        className="inputDiv"
      >
        <select
          defaultValue="male"
          onChange={[Function]}
        >
          <option
            value="male"
          >
            Man
          </option>
          <option
            value="female"
          >
            Woman
          </option>
          <option
            value="noident"
          >
            Don't identify with gender
          </option>
        </select>
      </div>
      <div
        className="inputDiv"
      >
        <input
          className=""
          onChange={[Function]}
          placeholder="Email"
          type="text"
        />
      </div>
      <div
        className="inputDiv"
      >
        <input
          className=""
          onChange={[Function]}
          placeholder="Phone"
          type="text"
        />
      </div>
    </div>
    <div
      className="addressDiv boundedDiv"
    >
      <p
        className="formText"
      >
        Address 
        <span
          className="clickable"
          onClick={[Function]}
        >
          [X]
        </span>
      </p>
      <p
        className="smallText"
      >
        House Number
      </p>
      <div
        className="inputDiv"
      >
        <input
          className=""
          onChange={[Function]}
          placeholder="House number"
          type="text"
        />
      </div>
      <p
        className="smallText"
      >
        Street
      </p>
      <div
        className="inputDiv"
      >
        <input
          className=""
          onChange={[Function]}
          placeholder="Street"
          type="text"
        />
      </div>
      <p
        className="smallText"
      >
        City
      </p>
      <div
        className="inputDiv"
      >
        <input
          className=""
          onChange={[Function]}
          placeholder="City"
          type="text"
        />
      </div>
      <p
        className="smallText"
      >
        ZIP
      </p>
      <div
        className="inputDiv"
      >
        <input
          className=""
          onChange={[Function]}
          placeholder="ZIP"
          type="text"
        />
      </div>
    </div>
    <div
      className="inputDiv"
    >
      <button
        className="addAddress"
        onClick={[Function]}
        type="button"
      >
        Add address
      </button>
    </div>
    <div
      className="inputDiv"
    >
      <button
        className="formSubmit"
        type="submit"
      >
        Subscribe
      </button>
    </div>
  </form>
</div>
`;

exports[`Application should match the snapshot for state 2 1`] = `
<div
  className="wrapper"
>
  <h1>
    Acme Subscription to catch the road runner!
  </h1>
  <form
    onSubmit={[Function]}
  >
    <p>
      Please enter your details below
    </p>
    <div
      className="boundedDiv"
    >
      <div
        className="inputDiv"
      >
        <input
          className=""
          onChange={[Function]}
          placeholder="Name"
          type="text"
        />
      </div>
      <div
        className="inputDiv"
      >
        <select
          defaultValue="male"
          onChange={[Function]}
        >
          <option
            value="male"
          >
            Man
          </option>
          <option
            value="female"
          >
            Woman
          </option>
          <option
            value="noident"
          >
            Don't identify with gender
          </option>
        </select>
      </div>
      <div
        className="inputDiv"
      >
        <input
          className=""
          onChange={[Function]}
          placeholder="Email"
          type="text"
        />
      </div>
      <div
        className="inputDiv"
      >
        <input
          className=""
          onChange={[Function]}
          placeholder="Phone"
          type="text"
        />
      </div>
    </div>
    <div
      className="addressDiv boundedDiv"
    >
      <p
        className="formText"
      >
        Address 
        <span
          className="clickable"
          onClick={[Function]}
        >
          [X]
        </span>
      </p>
      <p
        className="smallText"
      >
        House Number
      </p>
      <div
        className="inputDiv"
      >
        <input
          className=""
          onChange={[Function]}
          placeholder="House number"
          type="text"
        />
      </div>
      <p
        className="smallText"
      >
        Street
      </p>
      <div
        className="inputDiv"
      >
        <input
          className=""
          onChange={[Function]}
          placeholder="Street"
          type="text"
        />
      </div>
      <p
        className="smallText"
      >
        City
      </p>
      <div
        className="inputDiv"
      >
        <input
          className=""
          onChange={[Function]}
          placeholder="City"
          type="text"
        />
      </div>
      <p
        className="smallText"
      >
        ZIP
      </p>
      <div
        className="inputDiv"
      >
        <input
          className=""
          onChange={[Function]}
          placeholder="ZIP"
          type="text"
        />
      </div>
    </div>
    <div
      className="addressDiv boundedDiv"
    >
      <p
        className="formText"
      >
        Address 
        <span
          className="clickable"
          onClick={[Function]}
        >
          [X]
        </span>
      </p>
      <p
        className="smallText"
      >
        House Number
      </p>
      <div
        className="inputDiv"
      >
        <input
          className=""
          onChange={[Function]}
          placeholder="House number"
          type="text"
        />
      </div>
      <p
        className="smallText"
      >
        Street
      </p>
      <div
        className="inputDiv"
      >
        <input
          className=""
          onChange={[Function]}
          placeholder="Street"
          type="text"
        />
      </div>
      <p
        className="smallText"
      >
        City
      </p>
      <div
        className="inputDiv"
      >
        <input
          className=""
          onChange={[Function]}
          placeholder="City"
          type="text"
        />
      </div>
      <p
        className="smallText"
      >
        ZIP
      </p>
      <div
        className="inputDiv"
      >
        <input
          className=""
          onChange={[Function]}
          placeholder="ZIP"
          type="text"
        />
      </div>
    </div>
    <div
      className="inputDiv"
    >
      <button
        className="addAddress"
        onClick={[Function]}
        type="button"
      >
        Add address
      </button>
    </div>
    <div
      className="inputDiv"
    >
      <button
        className="formSubmit"
        type="submit"
      >
        Subscribe
      </button>
    </div>
  </form>
</div>
`;
